thesaurus,keyword,type
LTER controlled vocabulary,urban,theme
LTER controlled vocabulary,reptiles,theme
LTER controlled vocabulary,species richness,theme
LTER controlled vocabulary,biomass,theme
LTER controlled vocabulary,mark and recapture,theme
LTER controlled vocabulary,abundance,theme
LTER core areas,population studies,theme
LTER core areas,adapting to city life,theme
Creator Defined Keyword Set,sonoran desert,theme
Creator Defined Keyword Set,field herpetology,theme
Creator Defined Keyword Set,herpetology,theme
Creator Defined Keyword Set,squamate,theme
Creator Defined Keyword Set,snake,theme
Creator Defined Keyword Set,body condition,theme
CAPLTER Keyword Set List,cap lter,theme
CAPLTER Keyword Set List,cap,theme
CAPLTER Keyword Set List,caplter,theme
CAPLTER Keyword Set List,central arizona phoenix long term ecological research,theme
CAPLTER Keyword Set List,arizona,place
CAPLTER Keyword Set List,az,place
CAPLTER Keyword Set List,arid land,theme
