Year,Date,Time,Site,Array,Recorder,Handler,Traps Open/Closed,Comments,,Concatenate
2020,2/24/2020,09:55:00 AM,GWA1,1,BDA,BDA,OPEN,N/A,,GWA11OPEN
2020,2/24/2020,10:55:00 AM,GWA1,2,BDA,BDA,OPEN,N/A,,GWA12OPEN
2020,2/24/2020,11:15:00 AM,GWA2,1,BDA,BDA,OPEN,N/A,,GWA21OPEN
2020,2/24/2020,11:40:00 AM,GWA2,2,BDA,BDA,OPEN,N/A,,GWA22OPEN
2020,2/25/2020,08:40:00 AM,GWA2,1,BDA,AKB,CHECKED,N/A,,GWA21CHECKED
2020,2/25/2020,08:50:00 AM,GWA2,2,BDA,AKB,CHECKED,N/A,,GWA22CHECKED
2020,2/25/2020,09:40:00 AM,GWA1,1,BDA,AKB,CHECKED,N/A,,GWA11CHECKED
2020,2/25/2020,09:50:00 AM,GWA1,2,BDA,AKB,CHECKED,N/A,,GWA12CHECKED
2020,2/26/2020,08:50:00 AM,GWA2,1,BDA,AKB,CHECKED & CLOSED,N/A,,GWA21CHECKED & CLOSED
2020,2/26/2020,09:10:00 AM,GWA2,2,AKB,BDA,CHECKED & CLOSED,N/A,,GWA22CHECKED & CLOSED
2020,2/26/2020,09:50:00 AM,GWA1,1,AKB,BDA,CHECKED & CLOSED,N/A,,GWA11CHECKED & CLOSED
2020,2/26/2020,10:00:00 AM,GWA1,2,AKB,BDA,CHECKED & CLOSED,N/A,,GWA12CHECKED & CLOSED
2020,3/5/2020,08:07:00 AM,GWA2,1,BDA,BDA,OPEN,N/A,,GWA21OPEN
2020,3/5/2020,08:29:00 AM,GWA2,1,BDA,BDA,OPEN,N/A,,GWA21OPEN
2020,3/5/2020,09:30:00 AM,GWA1,1,BDA,BDA,OPEN,N/A,,GWA11OPEN
2020,3/5/2020,09:50:00 AM,GWA1,2,BDA,BDA,OPEN,N/A,,GWA12OPEN
2020,3/6/2020,13:22:00 PM,GWA2,1,HLB,HLB,CHECKED & CLOSED,N/A,,GWA21CHECKED & CLOSED
2020,3/6/2020,14:08:00 PM,GWA2,2,HLB,HLB,CHECKED & CLOSED,N/A,,GWA22CHECKED & CLOSED
2020,3/6/2020,15:04:00 PM,GWA1,1,HLB,HLB,CHECKED & CLOSED,N/A,,GWA11CHECKED & CLOSED
2020,3/6/2020,15:23:00 PM,GWA1,2,HLB,HLB,CHECKED & CLOSED,N/A,,GWA12CHECKED & CLOSED
2020,9/20/2020,07:00:00 AM,GWA1,1,BSA,BSA,OPEN,N/A,,GWA11OPEN
2020,9/20/2020,08:10:00 AM,GWA1,2,BSA,BSA,OPEN,N/A,,GWA12OPEN
2020,9/20/2020,09:15:00 AM,GWA2,1,BSA,BSA,OPEN,N/A,,GWA21OPEN
2020,9/20/2020,09:45:00 AM,GWA2,2,BSA,BSA,OPEN,N/A,,GWA22OPEN
2020,9/21/2020,07:25:00 AM,GWA1,2,AKB,BDA,CHECKED,N/A,,GWA12CHECKED
2020,9/21/2020,09:35:00 AM,GWA1,1,AKB,BDA,CHECKED,N/A,,GWA11CHECKED
2020,9/21/2020,10:23:00 AM,GWA2,2,AKB,BDA,CHECKED,N/A,,GWA22CHECKED
2020,9/21/2020,10:40:00 AM,GWA2,1,BDA,AKB,CHECKED,N/A,,GWA21CHECKED
2020,9/22/2020,08:06:00 AM,GWA2,1,HLB,HLB,CHECKED,N/A,,GWA21CHECKED
2020,9/22/2020,08:43:00 AM,GWA2,2,HLB,HLB,CHECKED,N/A,,GWA22CHECKED
2020,9/22/2020,09:55:00 AM,GWA1,1,HLB,HLB,CHECKED,N/A,,GWA11CHECKED
2020,9/22/2020,10:25:00 AM,GWA1,2,HLB,HLB,CHECKED,N/A,,GWA12CHECKED
2020,9/23/2020,07:15:00 AM,GWA2,1,HLB,HLB,CHECKED,N/A,,GWA21CHECKED
2020,9/23/2020,07:30:00 AM,GWA2,2,HLB,HLB,CHECKED,N/A,,GWA22CHECKED
2020,9/23/2020,08:25:00 AM,GWA1,1,HLB,HLB,CHECKED,N/A,,GWA11CHECKED
2020,9/23/2020,08:55:00 AM,GWA1,2,HLB,HLB,CHECKED,N/A,,GWA12CHECKED
2020,9/24/2020,08:06:00 AM,GWA2,1,HLB,HLB,CHECKED & CLOSED,N/A,,GWA21CHECKED & CLOSED
2020,9/24/2020,08:30:00 AM,GWA2,2,HLB,HLB,CHECKED & CLOSED,N/A,,GWA22CHECKED & CLOSED
2020,9/24/2020,09:36:00 AM,GWA1,1,HLB,HLB,CHECKED & CLOSED,N/A,,GWA11CHECKED & CLOSED
2020,9/24/2020,10:09:00 AM,GWA1,2,HLB,HLB,CHECKED & CLOSED,N/A,,GWA12CHECKED & CLOSED
2020,10/8/2020,08:07:00 AM,GWA2,1,BDA,BDA,CHECKED,N/A,,GWA21CHECKED
2020,10/8/2020,08:45:00 AM,GWA2,2,BDA,BDA,CHECKED,N/A,,GWA22CHECKED
2020,10/8/2020,09:35:00 AM,GWA1,1,BDA,BDA,CHECKED,N/A,,GWA11CHECKED
2020,10/8/2020,10:01:00 AM,GWA1,2,BDA,BDA,CHECKED,N/A,,GWA12CHECKED
2020,10/9/2020,08:04:00 AM,GWA2,1,CEY,HLB,CHECKED & CLOSED,N/A,,GWA21CHECKED & CLOSED
2020,10/9/2020,08:29:00 AM,GWA2,2,LRM,HLB,CHECKED & CLOSED,N/A,,GWA22CHECKED & CLOSED
2020,10/9/2020,09:06:00 AM,GWA1,1,HLB,HLB,CHECKED & CLOSED,N/A,,GWA11CHECKED & CLOSED
2020,10/9/2020,09:42:00 AM,GWA1,2,HLB,HLB,CHECKED & CLOSED,N/A,,GWA12CHECKED & CLOSED
2020,10/18/2020,15:49:00 PM,GWA2,1,BDA,BDA,OPEN,N/A,,GWA21OPEN
2020,10/18/2020,15:50:00 PM,GWA1,1,BDA,BDA,OPEN,N/A,,GWA11OPEN
2020,10/18/2020,15:50:00 PM,GWA2,2,BDA,BDA,OPEN,N/A,,GWA22OPEN
2020,10/18/2020,15:51:00 PM,GWA1,2,BDA,BDA,OPEN,N/A,,GWA12OPEN
2020,10/19/2020,08:11:00 AM,GWA2,1,BDA,BDA,CHECKED,N/A,,GWA21CHECKED
2020,10/19/2020,08:27:00 AM,GWA2,2,BDA,BDA,CHECKED,N/A,,GWA22CHECKED
2020,10/19/2020,09:09:00 AM,GWA1,1,BDA,BDA,CHECKED,N/A,,GWA11CHECKED
2020,10/19/2020,09:28:00 AM,GWA1,2,BDA,BDA,CHECKED,N/A,,GWA12CHECKED
2020,10/20/2020,07:19:00 AM,GWA2,1,BDA,AKB,CHECKED & CLOSED,N/A,,GWA21CHECKED & CLOSED
2020,10/20/2020,07:46:00 AM,GWA2,2,BDA,AKB,CHECKED & CLOSED,N/A,,GWA22CHECKED & CLOSED
2020,10/20/2020,08:29:00 AM,GWA1,1,BDA,AKB,CHECKED & CLOSED,N/A,,GWA11CHECKED & CLOSED
2020,10/20/2020,08:57:00 AM,GWA1,2,AKB,BDA,CHECKED & CLOSED,N/A,,GWA12CHECKED & CLOSED
2020,10/29/2020,07:23:00 AM,GWA2,1,BDA,AKB,OPEN,N/A,,GWA21OPEN
2020,10/29/2020,07:33:00 AM,GWA2,2,BDA,AKB,OPEN,N/A,,GWA22OPEN
2020,10/29/2020,07:54:00 AM,GWA1,1,BDA,AKB,OPEN,N/A,,GWA11OPEN
2020,10/29/2020,08:05:00 AM,GWA1,2,AKB,BDA,OPEN,N/A,,GWA12OPEN
2020,10/30/2020,07:43:00 AM,GWA2,1,HLB,HLB,CHECKED & CLOSED,N/A,,GWA21CHECKED & CLOSED
2020,10/30/2020,07:52:00 AM,GWA2,2,LRM,HLB,CHECKED & CLOSED,N/A,,GWA22CHECKED & CLOSED
2020,10/30/2020,08:22:00 AM,GWA1,1,AH,HLB,CHECKED & CLOSED,N/A,,GWA11CHECKED & CLOSED
2020,10/30/2020,08:35:00 AM,GWA1,2,GRB,HLB,CHECKED & CLOSED,N/A,,GWA12CHECKED & CLOSED
2021,4/8/2021,13:00:00 PM,GWA1,2,HLB,HLB,OPEN,N/A,,GWA12OPEN
2021,4/8/2021,13:00:00 PM,GWA1,1,HLB,HLB,OPEN,N/A,,GWA11OPEN
2021,4/8/2021,14:25:00 PM,GWA2,1,HLB,HLB,OPEN,N/A,,GWA21OPEN
2021,4/8/2021,14:40:00 PM,GWA2,2,HLB,HLB,OPEN,N/A,,GWA22OPEN
2021,4/9/2021,10:23:00 AM,GWA2,1,HLB,AME,CHECKED & CLOSED,N/A,,GWA21CHECKED & CLOSED
2021,4/9/2021,11:29:00 AM,GWA1,1,HLB,AME,CHECKED & CLOSED,N/A,,GWA11CHECKED & CLOSED
2021,4/9/2021,11:50:00 AM,GWA1,2,HLB,AME,CHECKED & CLOSED,N/A,,GWA12CHECKED & CLOSED
2021,4/15/2021,14:00:00 PM,GWA2,1,HLB,HLB,OPEN,N/A,,GWA21OPEN
2021,4/15/2021,14:20:00 PM,GWA2,2,HLB,HLB,OPEN,N/A,,GWA22OPEN
2021,4/15/2021,15:15:00 PM,GWA1,1,HLB,HLB,OPEN,N/A,,GWA11OPEN
2021,4/15/2021,15:20:00 PM,GWA1,2,HLB,HLB,OPEN,N/A,,GWA12OPEN
2021,4/16/2021,07:38:00 AM,GWA2,1,HLB,AME,CHECKED,N/A,,GWA21CHECKED
2021,4/16/2021,07:49:00 AM,GWA2,2,HLB,AME,CHECKED,N/A,,GWA22CHECKED
2021,4/16/2021,08:46:00 AM,GWA1,1,HLB,AME,CHECKED,N/A,,GWA11CHECKED
2021,4/16/2021,09:00:00 AM,GWA1,2,HLB,AME,CHECKED,N/A,,GWA12CHECKED
2021,4/17/2021,07:30:00 AM,GWA2,1,HLB,AME,CHECKED & CLOSED,N/A,,GWA21CHECKED & CLOSED
2021,4/17/2021,07:45:00 AM,GWA2,2,HLB,AEM,CHECKED & CLOSED,N/A,,GWA22CHECKED & CLOSED
2021,4/17/2021,08:26:00 AM,GWA1,1,HLB,AME,CHECKED & CLOSED,N/A,,GWA11CHECKED & CLOSED
2021,4/17/2021,08:42:00 AM,GWA1,2,HLB,AME,CHECKED & CLOSED,N/A,,GWA12CHECKED & CLOSED
2021,4/9/2021,10:38:00 AM,GWA2,2,HLB,AME,CHECKED & CLOSED,change to 4/9/2021,,GWA22CHECKED & CLOSED
2021,4/27/2021,07:30:00 AM,GWA2,1,HLB,AME,OPEN,light rain,,GWA21OPEN
2021,4/27/2021,07:35:00 AM,GWA2,2,HLB,AME,OPEN,light rain,,GWA22OPEN
2021,4/27/2021,08:23:00 AM,GWA1,1,HLB,AME,OPEN,light rain,,GWA11OPEN
2021,4/27/2021,08:25:00 AM,GWA1,2,HLB,AME,OPEN,N/A,,GWA12OPEN
2021,4/28/2021,07:42:00 AM,GWA2,1,HLB,AME,CHECKED,N/A,,GWA21CHECKED
2021,4/28/2021,08:14:00 AM,GWA2,2,HLB,AME,CHECKED,N/A,,GWA22CHECKED
2021,4/28/2021,09:00:00 AM,GWA1,1,HLB,AME,CHECKED,N/A,,GWA11CHECKED
2021,4/28/2021,09:09:00 AM,GWA1,2,HLB,AME,CHECKED,N/A,,GWA12CHECKED
2021,4/29/2021,09:52:00 AM,GWA2,1,HLB,AME,CHECKED,N/A,,GWA21CHECKED
2021,4/29/2021,10:10:00 AM,GWA2,2,HLB,AME,CHECKED,Closed A4 ants,,GWA22CHECKED
2021,4/29/2021,10:44:00 AM,GWA1,1,HLB,AME,CHECKED,N/A,,GWA11CHECKED
2021,4/29/2021,11:02:00 AM,GWA1,2,HLB,AME,CHECKED,N/A,,GWA12CHECKED
2021,4/30/2021,07:14:00 AM,GWA2,1,MS,HLB,CHECKED & CLOSED,N/A,,GWA21CHECKED & CLOSED
2021,4/30/2021,07:36:00 AM,GWA2,2,CMP,HLB,CHECKED & CLOSED,N/A,,GWA22CHECKED & CLOSED
2021,4/30/2021,08:32:00 AM,GWA1,1,CMP,HLB,CHECKED & CLOSED,N/A,,GWA11CHECKED & CLOSED
2021,4/30/2021,08:47:00 AM,GWA1,2,HLB,HLB,CHECKED & CLOSED,N/A,,GWA12CHECKED & CLOSED
2021,9/10/2021,07:57:00 AM,GWA2,1,HLB,HLB,OPEN,wet buckets from heavy monsoon rains on 9/1,,GWA21OPEN
2021,9/10/2021,08:30:00 AM,GWA2,2,HLB,HLB,OPEN,wet buckets from rain on 9/1,,GWA22OPEN
2021,9/10/2021,09:00:00 AM,GWA1,1,HLB,AME,OPEN,"so many metamorphs, wet buckets from rain 9/1",,GWA11OPEN
2021,9/10/2021,09:36:00 AM,GWA1,2,HLB,AME,OPEN,B-fence needs repair,,GWA12OPEN
2021,9/11/2021,08:24:00 AM,GWA2,1,HLB,AME,CHECKED,Toads dehydrated,,GWA21CHECKED
2021,9/11/2021,08:57:00 AM,GWA2,2,HLB,AME,CHECKED,N/A,,GWA22CHECKED
2021,9/11/2021,09:30:00 AM,GWA1,1,HLB,AME,CHECKED,N/A,,GWA11CHECKED
2021,9/11/2021,10:26:00 AM,GWA1,2,HLB,AME,CHECKED,N/A,,GWA12CHECKED
2021,9/12/2021,07:34:00 AM,GWA2,1,HLB,AME,CHECKED & CLOSED,N/A,,GWA21CHECKED & CLOSED
2021,9/12/2021,08:20:00 AM,GWA2,2,HLB,AME,CHECKED & CLOSED,N/A,,GWA22CHECKED & CLOSED
2021,9/12/2021,09:20:00 AM,GWA1,1,HLB,AME,CHECKED & CLOSED,N/A,,GWA11CHECKED & CLOSED
2021,9/12/2021,09:51:00 AM,GWA1,2,HLB,AME,CHECKED & CLOSED,N/A,,GWA12CHECKED & CLOSED
2021,9/20/2021,07:30:00 AM,GWA2,1,AME,AME,OPEN,N/A,,GWA21OPEN
2021,9/20/2021,07:45:00 AM,GWA2,2,AME,AME,OPEN,N/A,,GWA22OPEN
2021,9/20/2021,08:40:00 AM,GWA1,1,AME,AME,OPEN,N/A,,GWA11OPEN
2021,9/20/2021,08:55:00 AM,GWA1,2,AME,AME,OPEN,N/A,,GWA12OPEN
2021,9/21/2021,10:52:00 AM,GWA1,2,HLB,HLB,CHECKED,N/A,,GWA12CHECKED
2021,9/21/2021,10:52:00 AM,GWA1,1,HLB,HLB,CHECKED,N/A,,GWA11CHECKED
2021,9/21/2021,10:52:00 AM,GWA2,2,HLB,HLB,CHECKED,N/A,,GWA22CHECKED
2021,9/21/2021,10:52:00 AM,GWA2,1,HLB,HLB,CHECKED,N/A,,GWA21CHECKED
2021,9/22/2021,07:45:00 AM,GWA2,1,BJM,AME,CHECKED,N/A,,GWA21CHECKED
2021,9/22/2021,08:10:00 AM,GWA2,2,BJM,AME,CHECKED,N/A,,GWA22CHECKED
2021,9/22/2021,08:50:00 AM,GWA1,1,BJM,AME,CHECKED,N/A,,GWA11CHECKED
2021,9/22/2021,09:15:00 AM,GWA1,2,BJM,AME,CHECKED,N/A,,GWA12CHECKED
2021,9/23/2021,08:30:00 AM,GWA2,2,HLB,HLB,CHECKED & CLOSED,N/A,,GWA22CHECKED & CLOSED
2021,9/23/2021,08:30:00 AM,GWA2,1,BH,HLB,CHECKED & CLOSED,N/A,,GWA21CHECKED & CLOSED
2021,9/23/2021,09:01:00 AM,GWA1,1,HLB,HLB,CHECKED & CLOSED,N/A,,GWA11CHECKED & CLOSED
2021,9/23/2021,09:13:00 AM,GWA1,2,HLB,HLB,CHECKED & CLOSED,N/A,,GWA12CHECKED & CLOSED
2021,10/25/2021,08:30:00 AM,GWA2,1,AME,AME,OPEN,N/A,,GWA21OPEN
2021,10/25/2021,08:50:00 AM,GWA2,2,AME,AME,OPEN,N/A,,GWA22OPEN
2021,10/25/2021,09:20:00 AM,GWA1,1,AME,AME,OPEN,N/A,,GWA11OPEN
2021,10/25/2021,10:00:00 AM,GWA1,2,AME,AME,OPEN,N/A,,GWA12OPEN
2021,10/26/2021,11:58:00 AM,GWA2,1,HLB,HLB,CHECKED & CLOSED,N/A,,GWA21CHECKED & CLOSED
2021,10/26/2021,12:31:00 PM,GWA2,2,HLB,HLB,CHECKED & CLOSED,N/A,,GWA22CHECKED & CLOSED
2021,10/26/2021,13:29:00 PM,GWA1,2,HLB,HLB,CHECKED & CLOSED,N/A,,GWA12CHECKED & CLOSED
2021,10/26/2021,13:29:00 PM,GWA1,1,HLB,HLB,CHECKED & CLOSED,N/A,,GWA11CHECKED & CLOSED
2022,2/27/2022,06:01:00 AM,GWA2,2,AME,HLB,OPEN,N/A,,GWA22OPEN
2022,2/27/2022,06:01:00 AM,GWA2,1,AME,HLB,OPEN,N/A,,GWA21OPEN
2022,2/27/2022,06:01:00 AM,GWA1,2,AME,HLB,OPEN,N/A,,GWA12OPEN
2022,2/27/2022,06:01:00 AM,GWA1,1,AME,HLB,OPEN,N/A,,GWA11OPEN
2022,2/28/2022,06:18:00 AM,GWA2,2,AME,AME,CHECKED,N/A,,GWA22CHECKED
2022,2/28/2022,06:18:00 AM,GWA2,1,AME,AME,CHECKED,N/A,,GWA21CHECKED
2022,2/28/2022,06:18:00 AM,GWA1,2,AME,AME,CHECKED,N/A,,GWA12CHECKED
2022,2/28/2022,06:18:00 AM,GWA1,1,AME,AME,CHECKED,N/A,,GWA11CHECKED
2022,3/1/2022,06:18:00 AM,GWA2,2,AME,AME,CHECKED,N/A,,GWA22CHECKED
2022,3/1/2022,06:18:00 AM,GWA2,1,AME,AME,CHECKED,N/A,,GWA21CHECKED
2022,3/1/2022,06:18:00 AM,GWA1,2,AME,AME,CHECKED,N/A,,GWA12CHECKED
2022,3/1/2022,06:18:00 AM,GWA1,1,AME,AME,CHECKED,N/A,,GWA11CHECKED
2022,3/2/2022,09:11:00 AM,GWA2,2,HLB,HLB,CHECKED,N/A,,GWA22CHECKED
2022,3/2/2022,09:11:00 AM,GWA2,1,HLB,HLB,CHECKED,N/A,,GWA21CHECKED
2022,3/2/2022,09:49:00 AM,GWA1,2,HLB,HLB,CHECKED,N/A,,GWA12CHECKED
2022,3/2/2022,09:49:00 AM,GWA1,1,HLB,HLB,CHECKED,N/A,,GWA11CHECKED
2022,3/3/2022,10:27:00 AM,GWA1,2,AME,AME,CHECKED & CLOSED,N/A,,GWA12CHECKED & CLOSED
2022,3/3/2022,10:27:00 AM,GWA1,1,AME,AME,CHECKED & CLOSED,N/A,,GWA11CHECKED & CLOSED
2022,3/3/2022,10:27:00 AM,GWA2,2,AME,AME,CHECKED & CLOSED,N/A,,GWA22CHECKED & CLOSED
2022,3/3/2022,10:27:00 AM,GWA2,1,AME,AME,CHECKED & CLOSED,N/A,,GWA21CHECKED & CLOSED
2022,3/21/2022,09:45:00 AM,GWA1,2,AME,AME,OPEN,N/A,,GWA12OPEN
2022,3/21/2022,09:45:00 AM,GWA1,1,AME,AME,OPEN,N/A,,GWA11OPEN
2022,3/21/2022,09:45:00 AM,GWA2,2,AME,AME,OPEN,N/A,,GWA22OPEN
2022,3/21/2022,09:45:00 AM,GWA2,1,AME,AME,OPEN,N/A,,GWA21OPEN
2022,3/22/2022,10:47:00 AM,GWA1,2,CDB,AME,CHECKED,N/A,,GWA12CHECKED
2022,3/22/2022,10:47:00 AM,GWA1,1,AME,CDB,CHECKED,N/A,,GWA11CHECKED
2022,3/22/2022,10:47:00 AM,GWA2,2,AME,CDB,CHECKED,N/A,,GWA22CHECKED
2022,3/22/2022,10:47:00 AM,GWA2,1,AME,CDB,CHECKED,N/A,,GWA21CHECKED
2022,3/23/2022,08:48:00 AM,GWA2,1,HLB,HLB,CHECKED & CLOSED,N/A,,GWA21CHECKED & CLOSED
2022,3/23/2022,09:25:00 AM,GWA2,2,HLB,HLB,CHECKED & CLOSED,N/A,,GWA22CHECKED & CLOSED
2022,3/23/2022,10:22:00 AM,GWA1,1,HLB,HLB,CHECKED & CLOSED,N/A,,GWA11CHECKED & CLOSED
2022,3/23/2022,10:48:00 AM,GWA1,2,HLB,HLB,CHECKED & CLOSED,N/A,,GWA12CHECKED & CLOSED
2022,3/31/2022,11:21:00 AM,GWA1,2,AME,AME,OPEN,N/A,,GWA12OPEN
2022,3/31/2022,11:21:00 AM,GWA1,1,AME,AME,OPEN,N/A,,GWA11OPEN
2022,3/31/2022,11:21:00 AM,GWA2,2,AME,AME,OPEN,N/A,,GWA22OPEN
2022,3/31/2022,11:21:00 AM,GWA2,1,AME,AME,OPEN,N/A,,GWA21OPEN
2022,4/1/2022,15:49:00 PM,GWA2,2,HLB,HLB,CHECKED & CLOSED,N/A,,GWA22CHECKED & CLOSED
2022,4/1/2022,15:49:00 PM,GWA2,1,HLB,HLB,CHECKED & CLOSED,N/A,,GWA21CHECKED & CLOSED
2022,4/1/2022,15:51:00 PM,GWA1,1,HLB,HLB,CHECKED & CLOSED,N/A,,GWA11CHECKED & CLOSED
2022,4/1/2022,17:17:00 PM,GWA1,2,HLB,HLB,CHECKED & CLOSED,N/A,,GWA12CHECKED & CLOSED
2022,4/6/2022,07:18:00 AM,GWA2,2,AME,AME,OPEN,N/A,,GWA22OPEN
2022,4/6/2022,07:18:00 AM,GWA2,1,AME,AME,OPEN,N/A,,GWA21OPEN
2022,4/6/2022,07:18:00 AM,GWA1,1,AME,AME,OPEN,N/A,,GWA11OPEN
2022,4/6/2022,07:18:00 AM,GWA1,2,AME,AME,OPEN,N/A,,GWA12OPEN
2022,4/6/2022,10:57:00 AM,GWA1,2,BJM,AME,CHECKED,N/A,,GWA12CHECKED
2022,4/6/2022,10:57:00 AM,GWA1,1,AME,BJM,CHECKED,N/A,,GWA11CHECKED
2022,4/6/2022,10:57:00 AM,GWA2,2,BJM,AME,CHECKED,N/A,,GWA22CHECKED
2022,4/6/2022,10:57:00 AM,GWA2,1,AME,BJM,CHECKED,N/A,,GWA21CHECKED
2022,4/7/2022,08:15:00 AM,GWA2,1,AME,AME,CHECKED & CLOSED,N/A,,GWA21CHECKED & CLOSED
2022,4/7/2022,08:45:00 AM,GWA2,2,AME,AME,CHECKED & CLOSED,N/A,,GWA22CHECKED & CLOSED
2022,4/7/2022,09:40:00 AM,GWA1,1,AME,AME,CHECKED & CLOSED,N/A,,GWA11CHECKED & CLOSED
2022,4/7/2022,10:05:00 AM,GWA1,2,AME,AME,CHECKED & CLOSED,N/A,,GWA12CHECKED & CLOSED
2022,5/4/2022,09:29:00 AM,GWA1,2,AME,AME,OPEN,N/A,,GWA12OPEN
2022,5/4/2022,09:29:00 AM,GWA1,1,AME,AME,OPEN,B4 closed due to Lesser Nighthawk nest nearby,,GWA11OPEN
2022,5/4/2022,09:29:00 AM,GWA2,2,AME,AME,OPEN,N/A,,GWA22OPEN
2022,5/4/2022,09:29:00 AM,GWA2,1,AME,AME,OPEN,N/A,,GWA21OPEN
2022,5/5/2022,07:30:00 AM,GWA2,1,AME,AME,CHECKED & CLOSED,N/A,,GWA21CHECKED & CLOSED
2022,5/5/2022,08:05:00 AM,GWA2,2,AME,AME,CHECKED & CLOSED,N/A,,GWA22CHECKED & CLOSED
2022,5/5/2022,09:10:00 AM,GWA1,1,AME,AME,CHECKED & CLOSED,B4 closed due to Lesser Nighthawk nest nearby,,GWA11CHECKED & CLOSED
2022,5/5/2022,10:00:00 AM,GWA1,2,AME,AME,CHECKED & CLOSED,N/A,,GWA12CHECKED & CLOSED
